^C:\USERS\DYLAN\DOCUMENTS\GITHUB\REMEMBER\COMPILESHADERFROMFILE.CPP
/c /IDXUT\CORE /IDXUT\OPTIONAL /ZI /nologo /W4 /WX- /Od /Oi /Oy- /D WIN32 /D _DEBUG /D DEBUG /D PROFILE /D _WINDOWS /D D3DXFX_LARGEADDRESS_HANDLE /D _UNICODE /D UNICODE /Gm- /EHsc /RTC1 /MDd /GS /arch:SSE2 /fp:fast /Zc:wchar_t /Zc:forScope /Zc:inline /openmp- /Fo"DEBUG\\" /Fd"DEBUG\VC140.PDB" /Gd /TP /analyze-   C:\USERS\DYLAN\DOCUMENTS\GITHUB\REMEMBER\COMPILESHADERFROMFILE.CPP
^C:\USERS\DYLAN\DOCUMENTS\GITHUB\REMEMBER\FONT.CPP
/c /IDXUT\CORE /IDXUT\OPTIONAL /ZI /nologo /W4 /WX- /Od /Oi /Oy- /D WIN32 /D _DEBUG /D DEBUG /D PROFILE /D _WINDOWS /D D3DXFX_LARGEADDRESS_HANDLE /D _UNICODE /D UNICODE /Gm- /EHsc /RTC1 /MDd /GS /arch:SSE2 /fp:fast /Zc:wchar_t /Zc:forScope /Zc:inline /openmp- /Fo"DEBUG\\" /Fd"DEBUG\VC140.PDB" /Gd /TP /analyze-   C:\USERS\DYLAN\DOCUMENTS\GITHUB\REMEMBER\FONT.CPP
^C:\USERS\DYLAN\DOCUMENTS\GITHUB\REMEMBER\NENCODING.CPP
/c /IDXUT\CORE /IDXUT\OPTIONAL /ZI /nologo /W4 /WX- /Od /Oi /Oy- /D WIN32 /D _DEBUG /D DEBUG /D PROFILE /D _WINDOWS /D D3DXFX_LARGEADDRESS_HANDLE /D _UNICODE /D UNICODE /Gm- /EHsc /RTC1 /MDd /GS /arch:SSE2 /fp:fast /Zc:wchar_t /Zc:forScope /Zc:inline /openmp- /Fo"DEBUG\\" /Fd"DEBUG\VC140.PDB" /Gd /TP /analyze-   C:\USERS\DYLAN\DOCUMENTS\GITHUB\REMEMBER\NENCODING.CPP
^C:\USERS\DYLAN\DOCUMENTS\GITHUB\REMEMBER\SOUND.CPP
/c /IDXUT\CORE /IDXUT\OPTIONAL /ZI /nologo /W4 /WX- /Od /Oi /Oy- /D WIN32 /D _DEBUG /D DEBUG /D PROFILE /D _WINDOWS /D D3DXFX_LARGEADDRESS_HANDLE /D _UNICODE /D UNICODE /Gm- /EHsc /RTC1 /MDd /GS /arch:SSE2 /fp:fast /Zc:wchar_t /Zc:forScope /Zc:inline /openmp- /Fo"DEBUG\\" /Fd"DEBUG\VC140.PDB" /Gd /TP /analyze-   C:\USERS\DYLAN\DOCUMENTS\GITHUB\REMEMBER\SOUND.CPP
^C:\USERS\DYLAN\DOCUMENTS\GITHUB\REMEMBER\LOAD3DS.CPP
/c /IDXUT\CORE /IDXUT\OPTIONAL /ZI /nologo /W4 /WX- /Od /Oi /Oy- /D WIN32 /D _DEBUG /D DEBUG /D PROFILE /D _WINDOWS /D D3DXFX_LARGEADDRESS_HANDLE /D _UNICODE /D UNICODE /Gm- /EHsc /RTC1 /MDd /GS /arch:SSE2 /fp:fast /Zc:wchar_t /Zc:forScope /Zc:inline /openmp- /Fo"DEBUG\\" /Fd"DEBUG\VC140.PDB" /Gd /TP /analyze-   C:\USERS\DYLAN\DOCUMENTS\GITHUB\REMEMBER\LOAD3DS.CPP
^C:\USERS\DYLAN\DOCUMENTS\GITHUB\REMEMBER\RENDERTEXTURE.CPP
/c /IDXUT\CORE /IDXUT\OPTIONAL /ZI /nologo /W4 /WX- /Od /Oi /Oy- /D WIN32 /D _DEBUG /D DEBUG /D PROFILE /D _WINDOWS /D D3DXFX_LARGEADDRESS_HANDLE /D _UNICODE /D UNICODE /Gm- /EHsc /RTC1 /MDd /GS /arch:SSE2 /fp:fast /Zc:wchar_t /Zc:forScope /Zc:inline /openmp- /Fo"DEBUG\\" /Fd"DEBUG\VC140.PDB" /Gd /TP /analyze-   C:\USERS\DYLAN\DOCUMENTS\GITHUB\REMEMBER\RENDERTEXTURE.CPP
^C:\USERS\DYLAN\DOCUMENTS\GITHUB\REMEMBER\SKYSPHERE.CPP
/c /IDXUT\CORE /IDXUT\OPTIONAL /ZI /nologo /W4 /WX- /Od /Oi /Oy- /D WIN32 /D _DEBUG /D DEBUG /D PROFILE /D _WINDOWS /D D3DXFX_LARGEADDRESS_HANDLE /D _UNICODE /D UNICODE /Gm- /EHsc /RTC1 /MDd /GS /arch:SSE2 /fp:fast /Zc:wchar_t /Zc:forScope /Zc:inline /openmp- /Fo"DEBUG\\" /Fd"DEBUG\VC140.PDB" /Gd /TP /analyze-   C:\USERS\DYLAN\DOCUMENTS\GITHUB\REMEMBER\SKYSPHERE.CPP
^C:\USERS\DYLAN\DOCUMENTS\GITHUB\REMEMBER\TIMER.CPP
/c /IDXUT\CORE /IDXUT\OPTIONAL /ZI /nologo /W4 /WX- /Od /Oi /Oy- /D WIN32 /D _DEBUG /D DEBUG /D PROFILE /D _WINDOWS /D D3DXFX_LARGEADDRESS_HANDLE /D _UNICODE /D UNICODE /Gm- /EHsc /RTC1 /MDd /GS /arch:SSE2 /fp:fast /Zc:wchar_t /Zc:forScope /Zc:inline /openmp- /Fo"DEBUG\\" /Fd"DEBUG\VC140.PDB" /Gd /TP /analyze-   C:\USERS\DYLAN\DOCUMENTS\GITHUB\REMEMBER\TIMER.CPP
^C:\USERS\DYLAN\DOCUMENTS\GITHUB\REMEMBER\ENGINE.CPP
/c /IDXUT\CORE /IDXUT\OPTIONAL /ZI /nologo /W4 /WX- /Od /Oi /Oy- /D WIN32 /D _DEBUG /D DEBUG /D PROFILE /D _WINDOWS /D D3DXFX_LARGEADDRESS_HANDLE /D _UNICODE /D UNICODE /Gm- /EHsc /RTC1 /MDd /GS /arch:SSE2 /fp:fast /Zc:wchar_t /Zc:forScope /Zc:inline /openmp- /Fo"DEBUG\\" /Fd"DEBUG\VC140.PDB" /Gd /TP /analyze-   C:\USERS\DYLAN\DOCUMENTS\GITHUB\REMEMBER\ENGINE.CPP
^C:\USERS\DYLAN\DOCUMENTS\GITHUB\REMEMBER\MAIN.CPP
/c /IDXUT\CORE /IDXUT\OPTIONAL /ZI /nologo /W4 /WX- /Od /Oi /Oy- /D WIN32 /D _DEBUG /D DEBUG /D PROFILE /D _WINDOWS /D D3DXFX_LARGEADDRESS_HANDLE /D _UNICODE /D UNICODE /Gm- /EHsc /RTC1 /MDd /GS /arch:SSE2 /fp:fast /Zc:wchar_t /Zc:forScope /Zc:inline /openmp- /Fo"DEBUG\\" /Fd"DEBUG\VC140.PDB" /Gd /TP /analyze-   C:\USERS\DYLAN\DOCUMENTS\GITHUB\REMEMBER\MAIN.CPP
^C:\USERS\DYLAN\DOCUMENTS\GITHUB\REMEMBER\BASEPLAYER.CPP
/c /IDXUT\CORE /IDXUT\OPTIONAL /ZI /nologo /W4 /WX- /Od /Oi /Oy- /D WIN32 /D _DEBUG /D DEBUG /D PROFILE /D _WINDOWS /D D3DXFX_LARGEADDRESS_HANDLE /D _UNICODE /D UNICODE /Gm- /EHsc /RTC1 /MDd /GS /arch:SSE2 /fp:fast /Zc:wchar_t /Zc:forScope /Zc:inline /openmp- /Fo"DEBUG\\" /Fd"DEBUG\VC140.PDB" /Gd /TP /analyze-   C:\USERS\DYLAN\DOCUMENTS\GITHUB\REMEMBER\BASEPLAYER.CPP
